…
``` r
if (!require("fivethirtyeight")) install.packages("fivethirtyeight");
if (!require("tidyverse")) install.packages("tidyverse");
if (!require("gapminder")) install.packages("gapminder");
if (!require("knitr")) install.packages("knitr");
if (!require("tidyr")) install.packages("tidyr");
```

## 2 Introduction to the dataset
Showing the dataset food_world_cup in table

``` r
# Show the data tibble of the dataset `food_world_cup`
food_world_cup
## # A tibble: 1,373 x 48
##    respondent_id knowledge    interest gender age   household_income
##            <dbl> <ord>        <ord>    <chr>  <fct> <fct>
##  1   3308895255. Intermediate Some     Male   18-29 $100,000 - $149,999
##  2   3308891308. Novice       Some     Male   18-29 $100,000 - $149,999
##  3   3308891135. Intermediate A lot    Male   30-44 $50,000 - $99,999
##  4   3308879091. Novice       Not much Male   45-60 $0 - $24,999
##  5   3308871671. Novice       Not much Male   30-44 $25,000 - $49,999
##  6   3308871406. Advanced     A lot    Female 30-44 $50,000 - $99,999
##  7   3308866182. Novice       Some     Male   45-60 <NA>
##  8   3308857114. Advanced     A lot    Male   45-60 $0 - $24,999
##  9   3308856510. Novice       Not much Female 30-44 $50,000 - $99,999
## 10   3308846915. Novice       Some     <NA>   <NA>  <NA>
## # ... with 1,363 more rows, and 42 more variables: education <ord>,
## #   location <chr>, algeria <chr>, argentina <chr>, australia <chr>,
## #   belgium <chr>, bosnia_and_herzegovina <chr>, brazil <chr>,
## #   cameroon <chr>, chile <chr>, china <chr>, colombia <chr>,
## #   costa_rica <chr>, croatia <chr>, cuba <chr>, ecuador <chr>,
## #   england <chr>, ethiopia <chr>, france <chr>, germany <chr>,
## #   ghana <chr>, greece <chr>, honduras <chr>, india <chr>, iran <chr>,
## #   ireland <chr>, italy <chr>, ivory_coast <chr>, japan <chr>,
## #   mexico <chr>, nigeria <chr>, portugal <chr>, russia <chr>,
…
